Quarter,0.25
Dime,0.10
Dime,0.10
Quarter,0.25
Nickle,0.05
Nickle,0.05
Quarter,0.25
Dime,0.10
Nickle,0.05
Nickle,0.05
Quarter,0.25
Quarter,0.25
Quarter,0.25
,0
,0
Nickle,0.05
Nickle,0.05
Quarter,0.25
Quarter,0.25
Quarter,0.25
Quarter,0.25
Dime,0.10
Dime,0.10
Dime,0.10
Quarter,0.25
Quarter,0.25
Dime,0
Nickle,0.05
Nickle,0.05
